<svg xmlns="http://www.w3.org/2000/svg" xmlns:xlink="http://www.w3.org/1999/xlink" width="1920" height="818" viewBox="0 0 1920 818">
  <defs>
    <clipPath id="clip-path">
      <rect id="長方形_855" data-name="長方形 855" width="1920" height="818" transform="translate(7065 -13342)" fill="#21d9bd"/>
    </clipPath>
    <clipPath id="clip-path-2">
      <rect width="1204.35" height="817.387" fill="none"/>
    </clipPath>
  </defs>
  <g id="マスクグループ_23" data-name="マスクグループ 23" transform="translate(-7065 13342)" clip-path="url(#clip-path)">
    <g id="リピートグリッド_7" data-name="リピートグリッド 7" transform="translate(7780.602 -13341.729)" clip-path="url(#clip-path-2)">
      <g transform="translate(-7780.602 13341.729)">
        <path id="パス_1314" data-name="パス 1314" d="M-8156,4445v817.375h512.627l691.722-817.387Z" transform="translate(15936.602 -17786.713)" fill="#313131"/>
      </g>
    </g>
  </g>
</svg>
