<svg xmlns="http://www.w3.org/2000/svg" width="1208.438" height="610.826" viewBox="0 0 1208.438 610.826">
  <path id="パス_858" data-name="パス 858" d="M-8156,4444.993v610.818l691.52.008,516.918-610.826Z" transform="translate(8156 -4444.993)" fill="#fff" opacity="0.7"/>
</svg>
